attrs==18.2.0
certifi==2018.8.24
chardet==3.0.4
cmd2==0.9.6
colorama==0.4.0
deepdiff==3.3.0
idna==2.7
jsonpickle==1.0
lxml==4.5.0
pyperclip==1.7.0
pyreadline==2.1
requests==2.19.1
urllib3==1.23
wcwidth==0.1.7
xmltodict==0.11.0